
1592252724,3,19.33,55,309,41

1592252762,3,11,30,207,85

1592252785,3,18.67,53,286,31

1592252814,3,14.33,40,223,18

1592252860,3,19.33,55,283,31

1592252889,3,24.67,71,359,59

1592253035,3,21.33,61,324,14
1592253074,3,20.33,58,327,39
1592253120,3,25,72,335,35
1592253172,3,19.33,55,248,27
1592253212,3,17.67,50,251,24
1592253253,3,17.33,49,254,27
1592253326,3,23.67,68,382,59
1592253382,3,17.67,50,247,20
1592253438,3,18,51,278,29
1592253481,3,24,69,386,86
1592253535,3,20,57,289,28
1592253631,3,17.33,49,239,31
1592253684,3,14.67,41,185,15
1592253751,3,17,48,267,37
1592253820,3,13.33,37,181,12
1592254015,3,22.33,64,324,54
1592254366,3,15.33,43,203,7
1592254526,3,17.67,50,318,40
1592254636,3,16.67,47,260,27
1592254824,3,22,63,334,51
1592255157,3,24.33,70,337,25
1592255385,3,18,51,288,23
1592255603,3,16.33,46,195,22
1592256407,3,19,54,268,48
1592256982,3,17,48,237,38
1592257850,3,19.33,55,273,48
1592258138,3,16,45,194,15
1592258519,3,23.33,67,354,25
1592259170,3,9.33,25,138,9
1592259947,3,18,51,265,18
1592260445,3,24.33,70,377,47
1592260506,3,18.33,52,272,30
1592260549,3,26.33,76,428,58
1592260676,3,18.67,53,277,30
1592260744,3,21.33,61,345,27
1592260824,3,26.33,76,404,74
1592260902,3,20.33,58,327,38
1592261052,3,17.67,50,269,45
1592261119,3,14.67,41,207,25
1592261200,3,19.67,56,288,30
1592261288,3,19.33,55,282,28
1592261368,3,16.33,46,236,25
1592261445,3,20.33,58,272,33
1592261517,3,19,54,250,23
1592261617,3,18,51,236,13
1592261832,3,16,45,193,10
1592262803,3,14,39,205,10
1592262886,3,16.33,46,238,17
1592262983,3,16.67,47,260,25
1592263137,3,20.33,58,231,41
1592263196,3,19.33,55,301,29
1592263311,3,14.67,41,154,6
1592263465,3,16.67,47,236,24
1592263570,3,18.67,53,255,31
1592263783,3,18,51,290,24
1592263930,3,21,60,281,32
1592264252,3,18.67,53,274,19
1592264887,3,17,48,254,7
1592265074,3,12,33,161,3
1592265613,3,19,54,261,49
1592306866,3,19,54,303,23
1592307481,3,18.33,52,242,37
1592308098,3,17.67,50,267,36
1592308691,3,16,45,241,19
1592309225,3,19,54,261,21
1592310001,3,19.33,55,250,21
1592310489,3,25.67,74,425,97
1592310918,3,16.33,46,194,19
1592310945,3,18.67,53,276,35
1592310982,3,17.33,49,221,15
1592311029,3,17,48,251,49
1592311071,3,16.33,46,210,11
1592311122,3,19,54,276,41
1592311191,3,22,63,349,35
1592311247,3,15,42,233,39
1592311316,3,20.67,59,298,30
1592311384,3,23.33,67,330,31
1592311453,3,19.33,55,366,35
1592311519,3,15.33,43,236,19
1592311610,3,16.67,47,249,34
1592311689,3,14.67,41,170,16
1592311770,3,16.33,46,210,17
1592311874,3,21.33,61,326,34
1592311934,3,18.67,53,270,27
1592311984,3,17.33,49,253,12
1592312107,3,17.67,50,233,15
1592312296,3,18.67,53,251,4
1592312538,3,13.33,37,206,15
1592312691,3,21.33,61,288,21
1592312983,3,18,51,281,27
1592313350,3,10.33,28,131,14
1592313673,3,9,24,111,14
1592314179,3,14.33,40,199,12
1592314450,3,18.67,53,301,44
1592315031,3,8,21,82,4
1592315660,3,19.33,55,301,40
1592316344,3,20.67,59,281,40
1592316800,3,19.67,56,286,25
1592317630,3,17.67,50,227,14
1592319673,3,17.67,50,233,39
1592320731,3,18.67,53,318,45
1592321569,3,19,54,272,29
1592323300,3,22.33,64,314,38
1592323336,3,25.67,74,386,37
1592323378,3,18,51,306,23
1592323426,3,11.33,31,134,22
1592323484,3,15,42,214,21
1592323538,3,19.33,55,274,38
1592323601,3,18.33,52,274,46
1592323649,3,17.33,49,278,37
1592323719,3,15.67,44,237,15
1592323793,3,19,54,297,50
1592323893,3,23,66,329,29
1592324136,3,15.67,44,212,12
1592324251,3,22.67,65,279,10
1592324331,3,19,54,285,25
1592324429,3,15.67,44,186,26
1592324537,3,18.33,52,237,23
1592324951,3,17.67,50,275,23
1592325089,3,12.33,34,173,11
1592325247,3,18.33,52,270,27
1592325399,3,20.33,58,267,26
1592325644,3,21.33,61,319,36
1592325986,3,19,54,283,27
1592326238,3,18.33,52,246,31
1592329736,3,18.33,52,234,37
1592330383,3,15,42,244,17
1592331385,3,18.67,53,325,32
1592332269,3,24.67,71,355,38
1592333219,3,16.67,47,233,39
1592334156,3,15,42,216,24
1592335849,3,21.67,62,364,48
1592336306,3,18.67,53,254,28
1592336880,3,6,15,68,4
1592337488,3,14.67,41,202,8
1592338214,3,9,24,118,6
1592339103,3,13,36,153,7
1592341114,3,15.67,44,211,15
1592341139,3,22.33,64,332,73
1592341179,3,16.67,47,210,17
1592341222,3,16,45,202,32
1592341289,3,14,39,215,17
1592342111,3,15.67,44,223,34
1592342176,3,15.67,44,208,9
1592342354,3,15.67,44,232,18
1592342426,3,17.33,49,240,32
1592342516,3,20.33,58,320,47
1592342610,3,17.67,50,235,12
1592342682,3,17,48,246,19
1592343166,3,17.67,50,270,24
1592344146,3,16,45,222,28
1592344458,3,16,45,244,29
1592344604,3,21,60,292,33
1592344870,3,19.67,56,297,27
1592345003,3,27.33,79,433,66
1592345172,3,18.33,52,266,38
1592345398,3,10.67,29,160,20
1592345955,3,12.67,35,160,7
1592346168,3,22.33,64,309,38
1592346522,3,15.67,44,203,28
1592347801,3,16,45,233,24
1592349357,3,21,60,300,36
1592349873,3,17.33,49,211,11
1592350629,3,13,36,181,7
1592353054,3,16,45,208,23
1592420665,3,13.33,37,175,21
1592422177,3,12.67,35,178,15
1592422738,3,9,24,97,1
1592423939,3,10.67,29,110,7
1592424986,3,19,54,230,18
1592425710,3,19,54,281,31
1592426693,3,15.33,43,236,32
1592427824,3,21,60,361,47
1592429103,3,22.33,64,309,47
1592430297,3,11,30,137,3
1592441313,3,22.67,65,352,36
1592441353,3,23,66,382,62
